ex9/ads1115_adc/simulation/adc.vcd
$date 
$end
$version DSim 2025.0.1
$end
$timescale 1 ns $end
$scope module $pkgs $end
$scope module std $end
$scope function randomize $end
$upscope $end
$upscope $end
$upscope $end
$scope module $unit $end
$upscope $end
$scope module test $end
$scope module a $end
$var wire 8 % byteReceivedI2C[7:0] $end
$var reg 8 $ byteToSendI2C[7:0] $end
$var wire 2 0 channel[1:0] $end
$var wire 1 " clk $end
$var wire 1 & completeI2C $end
$var reg 8 8 counter[7:0] $end
$var reg 1 2 dataReady $end
$var wire 1 3 enable $end
$var reg 1 ' enableI2C $end
$var reg 2 # instructionI2C[1:0] $end
$var reg 16 1 outputData[15:0] $end
$var reg 1 9 processStarted $end
$var reg 16 4 setupRegister[15:0] $end
$var reg 5 7 state[4:0] $end
$var reg 3 6 subTaskIndex[2:0] $end
$var reg 2 5 taskIndex[1:0] $end
$upscope $end
$scope module c $end
$var reg 3 / bitToSend[2:0] $end
$var reg 8 % byteReceived[7:0] $end
$var wire 8 $ byteToSend[7:0] $end
$var wire 1 " clk $end
$var reg 7 - clkDivider[6:0] $end
$var reg 1 & complete $end
$var wire 1 ' enable $end
$var wire 2 # instruction[1:0] $end
$var reg 1 , isSending $end
$var reg 1 ) scl $end
$var wire 1 * sdaIn $end
$var reg 1 + sdaOut $end
$var reg 3 . state[2:0] $end
$upscope $end
$var reg 2 0 adcChannel[1:0] $end
$var wire 1 2 adcDataReady $end
$var reg 1 3 adcEnable $end
$var wire 16 1 adcOutputData[15:0] $end
$var reg 1 " clk $end
$var wire 8 % i2cByteReceived[7:0] $end
$var wire 8 $ i2cByteToSend[7:0] $end
$var wire 1 & i2cComplete $end
$var wire 1 ' i2cEnable $end
$var wire 2 # i2cInstruction[1:0] $end
$var wire 1 ) i2cScl $end
$var wire 1 ( i2cSda $end
$var wire 1 , isSending $end
$var wire 1 * sdaIn $end
$var wire 1 + sdaOut $end
$upscope $end
$enddefinitions $end
#0
$dumpvars
b0 %
b0 $
b0 0
0"
0&
b0 8
12
13
0'
b0 #
b0 1
09
b1100001110000011 4
b0 7
b0 6
b0 5
b0 /
b0 %
b0 $
0"
b0 -
0&
0'
b0 #
0,
1)
x*
1+
b100 .
b0 0
12
13
b0 1
0"
b0 %
b0 $
0&
0'
b0 #
1)
x(
0,
x*
1+
$end
1(
1*
#10
1"
02
b01 7
#20
0"
#30
1"
1'
b010 7
#40
0"
#50
1"
b0 .
19
#60
0"
#70
1"
b01 -
1,
#80
0"
#90
1"
b010 -
#100
0"
#110
1"
b011 -
#120
0"
#130
1"
b0100 -
#140
0"
#150
1"
b0101 -
#160
0"
#170
1"
b0110 -
#180
0"
#190
1"
b0111 -
#200
0"
#210
1"
b01000 -
#220
0"
#230
1"
b01001 -
#240
0"
#250
1"
b01010 -
#260
0"
#270
1"
b01011 -
#280
0"
#290
1"
b01100 -
#300
0"
#310
1"
b01101 -
#320
0"
#330
1"
b01110 -
#340
0"
#350
1"
b01111 -
#360
0"
#370
1"
b010000 -
#380
0"
#390
1"
b010001 -
#400
0"
#410
1"
b010010 -
#420
0"
#430
1"
b010011 -
#440
0"
#450
1"
b010100 -
#460
0"
#470
1"
b010101 -
#480
0"
#490
1"
b010110 -
#500
0"
#510
1"
b010111 -
#520
0"
#530
1"
b011000 -
#540
0"
#550
1"
b011001 -
#560
0"
#570
1"
b011010 -
#580
0"
#590
1"
b011011 -
#600
0"
#610
1"
b011100 -
#620
0"
#630
1"
b011101 -
#640
0"
#650
1"
b011110 -
#660
0"
#670
1"
b011111 -
#680
0"
#690
1"
b0100000 -
#700
0"
#710
1"
b0100001 -
0+
0(
0*
#720
0"
#730
1"
b0100010 -
#740
0"
#750
1"
b0100011 -
#760
0"
#770
1"
b0100100 -
#780
0"
#790
1"
b0100101 -
#800
0"
#810
1"
b0100110 -
#820
0"
#830
1"
b0100111 -
#840
0"
#850
1"
b0101000 -
#860
0"
#870
1"
b0101001 -
#880
0"
#890
1"
b0101010 -
#900
0"
#910
1"
b0101011 -
#920
0"
#930
1"
b0101100 -
#940
0"
#950
1"
b0101101 -
#960
0"
#970
1"
b0101110 -
#980
0"
#990
1"
b0101111 -
#1000
0"
#1010
1"
b0110000 -
#1020
0"
#1030
1"
b0110001 -
#1040
0"
#1050
1"
b0110010 -
#1060
0"
#1070
1"
b0110011 -
#1080
0"
#1090
1"
b0110100 -
#1100
0"
#1110
1"
b0110101 -
#1120
0"
#1130
1"
b0110110 -
#1140
0"
#1150
1"
b0110111 -
#1160
0"
#1170
1"
b0111000 -
#1180
0"
#1190
1"
b0111001 -
#1200
0"
#1210
1"
b0111010 -
#1220
0"
#1230
1"
b0111011 -
#1240
0"
#1250
1"
b0111100 -
#1260
0"
#1270
1"
b0111101 -
#1280
0"
#1290
1"
b0111110 -
#1300
0"
#1310
1"
b0111111 -
#1320
0"
#1330
1"
b1000000 -
#1340
0"
#1350
1"
b1000001 -
0)
#1360
0"
#1370
1"
b1000010 -
#1380
0"
#1390
1"
b1000011 -
#1400
0"
#1410
1"
b1000100 -
#1420
0"
#1430
1"
b1000101 -
#1440
0"
#1450
1"
b1000110 -
#1460
0"
#1470
1"
b1000111 -
#1480
0"
#1490
1"
b1001000 -
#1500
0"
#1510
1"
b1001001 -
#1520
0"
#1530
1"
b1001010 -
#1540
0"
#1550
1"
b1001011 -
#1560
0"
#1570
1"
b1001100 -
#1580
0"
#1590
1"
b1001101 -
#1600
0"
#1610
1"
b1001110 -
#1620
0"
#1630
1"
b1001111 -
#1640
0"
#1650
1"
b1010000 -
#1660
0"
#1670
1"
b1010001 -
#1680
0"
#1690
1"
b1010010 -
#1700
0"
#1710
1"
b1010011 -
#1720
0"
#1730
1"
b1010100 -
#1740
0"
#1750
1"
b1010101 -
#1760
0"
#1770
1"
b1010110 -
#1780
0"
#1790
1"
b1010111 -
#1800
0"
#1810
1"
b1011000 -
#1820
0"
#1830
1"
b1011001 -
#1840
0"
#1850
1"
b1011010 -
#1860
0"
#1870
1"
b1011011 -
#1880
0"
#1890
1"
b1011100 -
#1900
0"
#1910
1"
b1011101 -
#1920
0"
#1930
1"
b1011110 -
#1940
0"
#1950
1"
b1011111 -
#1960
0"
#1970
1"
b1100000 -
#1980
0"
#1990
1"
b1100001 -
b101 .
#2000
0"
#2010
1"
1&
#2020
0"
#2030
1"
b011 7
09
0'
#2040
0"
#2050
1"
b100 .
b01 7
b01 6
#2060
0"
#2070
1"
b11 #
b10010010 $
1'
b010 7
#2080
0"
#2090
1"
0&
b0 -
b011 .
#2100
0"
#2110
1"
b01 -
1+
19
1(
1*
#2120
0"
#2130
1"
b010 -
#2140
0"
#2150
1"
b011 -
#2160
0"
#2170
1"
b0100 -
#2180
0"
#2190
1"
b0101 -
#2200
0"
#2210
1"
b0110 -
#2220
0"
#2230
1"
b0111 -
#2240
0"
#2250
1"
b01000 -
#2260
0"
#2270
1"
b01001 -
#2280
0"
#2290
1"
b01010 -
#2300
0"
#2310
1"
b01011 -
#2320
0"
#2330
1"
b01100 -
#2340
0"
#2350
1"
b01101 -
#2360
0"
#2370
1"
b01110 -
#2380
0"
#2390
1"
b01111 -
#2400
0"
#2410
1"
b010000 -
#2420
0"
#2430
1"
b010001 -
#2440
0"
#2450
1"
b010010 -
#2460
0"
#2470
1"
b010011 -
#2480
0"
#2490
1"
b010100 -
#2500
0"
#2510
1"
b010101 -
#2520
0"
#2530
1"
b010110 -
#2540
0"
#2550
1"
b010111 -
#2560
0"
#2570
1"
b011000 -
#2580
0"
#2590
1"
b011001 -
#2600
0"
#2610
1"
b011010 -
#2620
0"
#2630
1"
b011011 -
#2640
0"
#2650
1"
b011100 -
#2660
0"
#2670
1"
b011101 -
#2680
0"
#2690
1"
b011110 -
#2700
0"
#2710
1"
b011111 -
#2720
0"
#2730
1"
b0100000 -
#2740
0"
#2750
1"
b0100001 -
1)
#2760
0"
#2770
1"
b0100010 -
#2780
0"
#2790
1"
b0100011 -
#2800
0"
#2810
1"
b0100100 -
#2820
0"
#2830
1"
b0100101 -
#2840
0"
#2850
1"
b0100110 -
#2860
0"
#2870
1"
b0100111 -
#2880
0"
#2890
1"
b0101000 -
#2900
0"
#2910
1"
b0101001 -
#2920
0"
#2930
1"
b0101010 -
#2940
0"
#2950
1"
b0101011 -
#2960
0"
#2970
1"
b0101100 -
#2980
0"
#2990
1"
b0101101 -
#3000
0"
#3010
1"
b0101110 -
#3020
0"
#3030
1"
b0101111 -
#3040
0"
#3050
1"
b0110000 -
#3060
0"
#3070
1"
b0110001 -
#3080
0"
#3090
1"
b0110010 -
#3100
0"
#3110
1"
b0110011 -
#3120
0"
#3130
1"
b0110100 -
#3140
0"
#3150
1"
b0110101 -
#3160
0"
#3170
1"
b0110110 -
#3180
0"
#3190
1"
b0110111 -
#3200
0"
#3210
1"
b0111000 -
#3220
0"
#3230
1"
b0111001 -
#3240
0"
#3250
1"
b0111010 -
#3260
0"
#3270
1"
b0111011 -
#3280
0"
#3290
1"
b0111100 -
#3300
0"
#3310
1"
b0111101 -
#3320
0"
#3330
1"
b0111110 -
#3340
0"
#3350
1"
b0111111 -
#3360
0"
#3370
1"
b1000000 -
#3380
0"
#3390
1"
b1000001 -
#3400
0"
#3410
1"
b1000010 -
#3420
0"
#3430
1"
b1000011 -
#3440
0"
#3450
1"
b1000100 -
#3460
0"
#3470
1"
b1000101 -
#3480
0"
#3490
1"
b1000110 -
#3500
0"
#3510
1"
b1000111 -
#3520
0"
#3530
1"
b1001000 -
#3540
0"
#3550
1"
b1001001 -
#3560
0"
#3570
1"
b1001010 -
#3580
0"
#3590
1"
b1001011 -
#3600
0"
#3610
1"
b1001100 -
#3620
0"
#3630
1"
b1001101 -
#3640
0"
#3650
1"
b1001110 -
#3660
0"
#3670
1"
b1001111 -
#3680
0"
#3690
1"
b1010000 -
#3700
0"
#3710
1"
b1010001 -
#3720
0"
#3730
1"
b1010010 -
#3740
0"
#3750
1"
b1010011 -
#3760
0"
#3770
1"
b1010100 -
#3780
0"
#3790
1"
b1010101 -
#3800
0"
#3810
1"
b1010110 -
#3820
0"
#3830
1"
b1010111 -
#3840
0"
#3850
1"
b1011000 -
#3860
0"
#3870
1"
b1011001 -
#3880
0"
#3890
1"
b1011010 -
#3900
0"
#3910
1"
b1011011 -
#3920
0"
#3930
1"
b1011100 -
#3940
0"
#3950
1"
b1011101 -
#3960
0"
#3970
1"
b1011110 -
#3980
0"
#3990
1"
b1011111 -
#4000
0"
#4010
1"
b1100000 -
#4020
0"
#4030
1"
b1100001 -
0)
#4040
0"
#4050
1"
b1100010 -
#4060
0"
#4070
1"
b1100011 -
#4080
0"
#4090
1"
b1100100 -
#4100
0"
#4110
1"
b1100101 -
#4120
0"
#4130
1"
b1100110 -
#4140
0"
#4150
1"
b1100111 -
#4160
0"
#4170
1"
b1101000 -
#4180
0"
#4190
1"
b1101001 -
#4200
0"
#4210
1"
b1101010 -
#4220
0"
#4230
1"
b1101011 -
#4240
0"
#4250
1"
b1101100 -
#4260
0"
#4270
1"
b1101101 -
#4280
0"
#4290
1"
b1101110 -
#4300
0"
#4310
1"
b1101111 -
#4320
0"
#4330
1"
b1110000 -
#4340
0"
#4350
1"
b1110001 -
#4360
0"
#4370
1"
b1110010 -
#4380
0"
#4390
1"
b1110011 -
#4400
0"
#4410
1"
b1110100 -
#4420
0"
#4430
1"
b1110101 -
#4440
0"
#4450
1"
b1110110 -
#4460
0"
#4470
1"
b1110111 -
#4480
0"
#4490
1"
b1111000 -
#4500
0"
#4510
1"
b1111001 -
#4520
0"
#4530
1"
b1111010 -
#4540
0"
#4550
1"
b1111011 -
#4560
0"
#4570
1"
b1111100 -
#4580
0"
#4590
1"
b1111101 -
#4600
0"
#4610
1"
b1111110 -
#4620
0"
#4630
1"
b1111111 -
#4640
0"
#4650
1"
b0 -
b01 /
#4660
0"
#4670
1"
b01 -
0+
0(
0*
#4680
0"
#4690
1"
b010 -
#4700
0"
#4710
1"
b011 -
#4720
0"
#4730
1"
b0100 -
#4740
0"
#4750
1"
b0101 -
#4760
0"
#4770
1"
b0110 -
#4780
0"
#4790
1"
b0111 -
#4800
0"
#4810
1"
b01000 -
#4820
0"
#4830
1"
b01001 -
#4840
0"
#4850
1"
b01010 -
#4860
0"
#4870
1"
b01011 -
#4880
0"
#4890
1"
b01100 -
#4900
0"
#4910
1"
b01101 -
#4920
0"
#4930
1"
b01110 -
#4940
0"
#4950
1"
b01111 -
#4960
0"
#4970
1"
b010000 -
#4980
0"
#4990
1"
b010001 -
#5000
0"
#5010
1"
b010010 -
#5020
0"
#5030
1"
b010011 -
#5040
0"
#5050
1"
b010100 -
#5060
0"
#5070
1"
b010101 -
#5080
0"
#5090
1"
b010110 -
#5100
0"
#5110
1"
b010111 -
#5120
0"
#5130
1"
b011000 -
#5140
0"
#5150
1"
b011001 -
#5160
0"
#5170
1"
b011010 -
#5180
0"
#5190
1"
b011011 -
#5200
0"
#5210
1"
b011100 -
#5220
0"
#5230
1"
b011101 -
#5240
0"
#5250
1"
b011110 -
#5260
0"
#5270
1"
b011111 -
#5280
0"
#5290
1"
b0100000 -
#5300
0"
#5310
1"
b0100001 -
1)
#5320
0"
#5330
1"
b0100010 -
#5340
0"
#5350
1"
b0100011 -
#5360
0"
#5370
1"
b0100100 -
#5380
0"
#5390
1"
b0100101 -
#5400
0"
#5410
1"
b0100110 -
#5420
0"
#5430
1"
b0100111 -
#5440
0"
#5450
1"
b0101000 -
#5460
0"
#5470
1"
b0101001 -
#5480
0"
#5490
1"
b0101010 -
#5500
0"
#5510
1"
b0101011 -
#5520
0"
#5530
1"
b0101100 -
#5540
0"
#5550
1"
b0101101 -
#5560
0"
#5570
1"
b0101110 -
#5580
0"
#5590
1"
b0101111 -
#5600
0"
#5610
1"
b0110000 -
#5620
0"
#5630
1"
b0110001 -
#5640
0"
#5650
1"
b0110010 -
#5660
0"
#5670
1"
b0110011 -
#5680
0"
#5690
1"
b0110100 -
#5700
0"
#5710
1"
b0110101 -
#5720
0"
#5730
1"
b0110110 -
#5740
0"
#5750
1"
b0110111 -
#5760
0"
#5770
1"
b0111000 -
#5780
0"
#5790
1"
b0111001 -
#5800
0"
#5810
1"
b0111010 -
#5820
0"
#5830
1"
b0111011 -
#5840
0"
#5850
1"
b0111100 -
#5860
0"
#5870
1"
b0111101 -
#5880
0"
#5890
1"
b0111110 -
#5900
0"
#5910
1"
b0111111 -
#5920
0"
#5930
1"
b1000000 -
#5940
0"
#5950
1"
b1000001 -
#5960
0"
#5970
1"
b1000010 -
#5980
0"
#5990
1"
b1000011 -
#6000
0"
#6010
1"
b1000100 -
#6020
0"
#6030
1"
b1000101 -
#6040
0"
#6050
1"
b1000110 -
#6060
0"
#6070
1"
b1000111 -
#6080
0"
#6090
1"
b1001000 -
#6100
0"
#6110
1"
b1001001 -
#6120
0"
#6130
1"
b1001010 -
#6140
0"
#6150
1"
b1001011 -
#6160
0"
#6170
1"
b1001100 -
#6180
0"
#6190
1"
b1001101 -
#6200
0"
#6210
1"
b1001110 -
#6220
0"
#6230
1"
b1001111 -
#6240
0"
#6250
1"
b1010000 -
#6260
0"
#6270
1"
b1010001 -
#6280
0"
#6290
1"
b1010010 -
#6300
0"
#6310
1"
b1010011 -
#6320
0"
#6330
1"
b1010100 -
#6340
0"
#6350
1"
b1010101 -
#6360
0"
#6370
1"
b1010110 -
#6380
0"
#6390
1"
b1010111 -
#6400
0"
#6410
1"
b1011000 -
#6420
0"
#6430
1"
b1011001 -
#6440
0"
#6450
1"
b1011010 -
#6460
0"
#6470
1"
b1011011 -
#6480
0"
#6490
1"
b1011100 -
#6500
0"
#6510
1"
b1011101 -
#6520
0"
#6530
1"
b1011110 -
#6540
0"
#6550
1"
b1011111 -
#6560
0"
#6570
1"
b1100000 -
#6580
0"
#6590
1"
b1100001 -
0)
#6600
0"
#6610
1"
b1100010 -
#6620
0"
#6630
1"
b1100011 -
#6640
0"
#6650
1"
b1100100 -
#6660
0"
#6670
1"
b1100101 -
#6680
0"
#6690
1"
b1100110 -
#6700
0"
#6710
1"
b1100111 -
#6720
0"
#6730
1"
b1101000 -
#6740
0"
#6750
1"
b1101001 -
#6760
0"
#6770
1"
b1101010 -
#6780
0"
#6790
1"
b1101011 -
#6800
0"
#6810
1"
b1101100 -
#6820
0"
#6830
1"
b1101101 -
#6840
0"
#6850
1"
b1101110 -
#6860
0"
#6870
1"
b1101111 -
#6880
0"
#6890
1"
b1110000 -
#6900
0"
#6910
1"
b1110001 -
#6920
0"
#6930
1"
b1110010 -
#6940
0"
#6950
1"
b1110011 -
#6960
0"
#6970
1"
b1110100 -
#6980
0"
#6990
1"
b1110101 -
#7000
0"
#7010
1"
b1110110 -
#7020
0"
#7030
1"
b1110111 -
#7040
0"
#7050
1"
b1111000 -
#7060
0"
#7070
1"
b1111001 -
#7080
0"
#7090
1"
b1111010 -
#7100
0"
#7110
1"
b1111011 -
#7120
0"
#7130
1"
b1111100 -
#7140
0"
#7150
1"
b1111101 -
#7160
0"
#7170
1"
b1111110 -
#7180
0"
#7190
1"
b1111111 -
#7200
0"
#7210
1"
b0 -
b010 /
#7220
0"
#7230
1"
b01 -
#7240
0"
#7250
1"
b010 -
#7260
0"
#7270
1"
b011 -
#7280
0"
#7290
1"
b0100 -
#7300
0"
#7310
1"
b0101 -
#7320
0"
#7330
1"
b0110 -
#7340
0"
#7350
1"
b0111 -
#7360
0"
#7370
1"
b01000 -
#7380
0"
#7390
1"
b01001 -
#7400
0"
#7410
1"
b01010 -
#7420
0"
#7430
1"
b01011 -
#7440
0"
#7450
1"
b01100 -
#7460
0"
#7470
1"
b01101 -
#7480
0"
#7490
1"
b01110 -
#7500
0"
#7510
1"
b01111 -
#7520
0"
#7530
1"
b010000 -
#7540
0"
#7550
1"
b010001 -
#7560
0"
#7570
1"
b010010 -
#7580
0"
#7590
1"
b010011 -
#7600
0"
#7610
1"
b010100 -
#7620
0"
#7630
1"
b010101 -
#7640
0"
#7650
1"
b010110 -
#7660
0"
#7670
1"
b010111 -
#7680
0"
#7690
1"
b011000 -
#7700
0"
#7710
1"
b011001 -
#7720
0"
#7730
1"
b011010 -
#7740
0"
#7750
1"
b011011 -
#7760
0"
#7770
1"
b011100 -
#7780
0"
#7790
1"
b011101 -
#7800
0"
#7810
1"
b011110 -
#7820
0"
#7830
1"
b011111 -
#7840
0"
#7850
1"
b0100000 -
#7860
0"
#7870
1"
b0100001 -
1)
#7880
0"
#7890
1"
b0100010 -
#7900
0"
#7910
1"
b0100011 -
#7920
0"
#7930
1"
b0100100 -
#7940
0"
#7950
1"
b0100101 -
#7960
0"
#7970
1"
b0100110 -
#7980
0"
#7990
1"
b0100111 -
#8000
0"
#8010
1"
b0101000 -
#8020
0"
#8030
1"
b0101001 -
#8040
0"
#8050
1"
b0101010 -
#8060
0"
#8070
1"
b0101011 -
#8080
0"
#8090
1"
b0101100 -
#8100
0"
#8110
1"
b0101101 -
#8120
0"
#8130
1"
b0101110 -
#8140
0"
#8150
1"
b0101111 -
#8160
0"
#8170
1"
b0110000 -
#8180
0"
#8190
1"
b0110001 -
#8200
0"
#8210
1"
b0110010 -
#8220
0"
#8230
1"
b0110011 -
#8240
0"
#8250
1"
b0110100 -
#8260
0"
#8270
1"
b0110101 -
#8280
0"
#8290
1"
b0110110 -
#8300
0"
#8310
1"
b0110111 -
#8320
0"
#8330
1"
b0111000 -
#8340
0"
#8350
1"
b0111001 -
#8360
0"
#8370
1"
b0111010 -
#8380
0"
#8390
1"
b0111011 -
#8400
0"
#8410
1"
b0111100 -
#8420
0"
#8430
1"
b0111101 -
#8440
0"
#8450
1"
b0111110 -
#8460
0"
#8470
1"
b0111111 -
#8480
0"
#8490
1"
b1000000 -
#8500
0"
#8510
1"
b1000001 -
#8520
0"
#8530
1"
b1000010 -
#8540
0"
#8550
1"
b1000011 -
#8560
0"
#8570
1"
b1000100 -
#8580
0"
#8590
1"
b1000101 -
#8600
0"
#8610
1"
b1000110 -
#8620
0"
#8630
1"
b1000111 -
#8640
0"
#8650
1"
b1001000 -
#8660
0"
#8670
1"
b1001001 -
#8680
0"
#8690
1"
b1001010 -
#8700
0"
#8710
1"
b1001011 -
#8720
0"
#8730
1"
b1001100 -
#8740
0"
#8750
1"
b1001101 -
#8760
0"
#8770
1"
b1001110 -
#8780
0"
#8790
1"
b1001111 -
#8800
0"
#8810
1"
b1010000 -
#8820
0"
#8830
1"
b1010001 -
#8840
0"
#8850
1"
b1010010 -
#8860
0"
#8870
1"
b1010011 -
#8880
0"
#8890
1"
b1010100 -
#8900
0"
#8910
1"
b1010101 -
#8920
0"
#8930
1"
b1010110 -
#8940
0"
#8950
1"
b1010111 -
#8960
0"
#8970
1"
b1011000 -
#8980
0"
#8990
1"
b1011001 -
#9000
0"
#9010
1"
b1011010 -
#9020
0"
#9030
1"
b1011011 -
#9040
0"
#9050
1"
b1011100 -
#9060
0"
#9070
1"
b1011101 -
#9080
0"
#9090
1"
b1011110 -
#9100
0"
#9110
1"
b1011111 -
#9120
0"
#9130
1"
b1100000 -
#9140
0"
#9150
1"
b1100001 -
0)
#9160
0"
#9170
1"
b1100010 -
#9180
0"
#9190
1"
b1100011 -
#9200
0"
#9210
1"
b1100100 -
#9220
0"
#9230
1"
b1100101 -
#9240
0"
#9250
1"
b1100110 -
#9260
0"
#9270
1"
b1100111 -
#9280
0"
#9290
1"
b1101000 -
#9300
0"
#9310
1"
b1101001 -
#9320
0"
#9330
1"
b1101010 -
#9340
0"
#9350
1"
b1101011 -
#9360
0"
#9370
1"
b1101100 -
#9380
0"
#9390
1"
b1101101 -
#9400
0"
#9410
1"
b1101110 -
#9420
0"
#9430
1"
b1101111 -
#9440
0"
#9450
1"
b1110000 -
#9460
0"
#9470
1"
b1110001 -
#9480
0"
#9490
1"
b1110010 -
#9500
0"
#9510
1"
b1110011 -
#9520
0"
#9530
1"
b1110100 -
#9540
0"
#9550
1"
b1110101 -
#9560
0"
#9570
1"
b1110110 -
#9580
0"
#9590
1"
b1110111 -
#9600
0"
#9610
1"
b1111000 -
#9620
0"
#9630
1"
b1111001 -
#9640
0"
#9650
1"
b1111010 -
#9660
0"
#9670
1"
b1111011 -
#9680
0"
#9690
1"
b1111100 -
#9700
0"
#9710
1"
b1111101 -
#9720
0"
#9730
1"
b1111110 -
#9740
0"
#9750
1"
b1111111 -
#9760
0"
#9770
1"
b0 -
b011 /
#9780
0"
#9790
1"
b01 -
1+
1(
1*
#9800
0"
#9810
1"
b010 -
#9820
0"
#9830
1"
b011 -
#9840
0"
#9850
1"
b0100 -
#9860
0"
#9870
1"
b0101 -
#9880
0"
#9890
1"
b0110 -
#9900
0"
#9910
1"
b0111 -
#9920
0"
#9930
1"
b01000 -
#9940
0"
#9950
1"
b01001 -
#9960
0"
#9970
1"
b01010 -
#9980
0"
#9990
1"
b01011 -
#10000
0"
#10010
1"
b01100 -
#10020
0"
#10030
1"
b01101 -
#10040
0"
#10050
1"
b01110 -
#10060
0"
#10070
1"
b01111 -
#10080
0"
#10090
1"
b010000 -
#10100
0"
#10110
1"
b010001 -
#10120
0"
#10130
1"
b010010 -
#10140
0"
#10150
1"
b010011 -
#10160
0"
#10170
1"
b010100 -
#10180
0"
#10190
1"
b010101 -
#10200
0"
#10210
1"
b010110 -
#10220
0"
#10230
1"
b010111 -
#10240
0"
#10250
1"
b011000 -
#10260
0"
#10270
1"
b011001 -
#10280
0"
#10290
1"
b011010 -
#10300
0"
#10310
1"
b011011 -
#10320
0"
#10330
1"
b011100 -
#10340
0"
#10350
1"
b011101 -
#10360
0"
#10370
1"
b011110 -
#10380
0"
#10390
1"
b011111 -
#10400
0"
#10410
1"
b0100000 -
#10420
0"
#10430
1"
b0100001 -
1)
#10440
0"
#10450
1"
b0100010 -
#10460
0"
#10470
1"
b0100011 -
#10480
0"
#10490
1"
b0100100 -
#10500
0"
#10510
1"
b0100101 -
#10520
0"
#10530
1"
b0100110 -
#10540
0"
#10550
1"
b0100111 -
#10560
0"
#10570
1"
b0101000 -
#10580
0"
#10590
1"
b0101001 -
#10600
0"
#10610
1"
b0101010 -
#10620
0"
#10630
1"
b0101011 -
#10640
0"
#10650
1"
b0101100 -
#10660
0"
#10670
1"
b0101101 -
#10680
0"
#10690
1"
b0101110 -
#10700
0"
#10710
1"
b0101111 -
#10720
0"
#10730
1"
b0110000 -
#10740
0"
#10750
1"
b0110001 -
#10760
0"
#10770
1"
b0110010 -
#10780
0"
#10790
1"
b0110011 -
#10800
0"
#10810
1"
b0110100 -
#10820
0"
#10830
1"
b0110101 -
#10840
0"
#10850
1"
b0110110 -
#10860
0"
#10870
1"
b0110111 -
#10880
0"
#10890
1"
b0111000 -
#10900
0"
#10910
1"
b0111001 -
#10920
0"
#10930
1"
b0111010 -
#10940
0"
#10950
1"
b0111011 -
#10960
0"
#10970
1"
b0111100 -
#10980
0"
#10990
1"
b0111101 -
#11000
0"
#11010
1"
b0111110 -
#11020
0"
#11030
1"
b0111111 -
#11040
0"
#11050
1"
b1000000 -
#11060
0"
#11070
1"
b1000001 -
#11080
0"
#11090
1"
b1000010 -
#11100
0"
#11110
1"
b1000011 -
#11120
0"
#11130
1"
b1000100 -
#11140
0"
#11150
1"
b1000101 -
#11160
0"
#11170
1"
b1000110 -
#11180
0"
#11190
1"
b1000111 -
#11200
0"
#11210
1"
b1001000 -
#11220
0"
#11230
1"
b1001001 -
#11240
0"
#11250
1"
b1001010 -
#11260
0"
#11270
1"
b1001011 -
#11280
0"
#11290
1"
b1001100 -
#11300
0"
#11310
1"
b1001101 -
#11320
0"
#11330
1"
b1001110 -
#11340
0"
#11350
1"
b1001111 -
#11360
0"
#11370
1"
b1010000 -
#11380
0"
#11390
1"
b1010001 -
#11400
0"
#11410
1"
b1010010 -
#11420
0"
#11430
1"
b1010011 -
#11440
0"
#11450
1"
b1010100 -
#11460
0"
#11470
1"
b1010101 -
#11480
0"
#11490
1"
b1010110 -
#11500
0"
#11510
1"
b1010111 -
#11520
0"
#11530
1"
b1011000 -
#11540
0"
#11550
1"
b1011001 -
#11560
0"
#11570
1"
b1011010 -
#11580
0"
#11590
1"
b1011011 -
#11600
0"
#11610
1"
b1011100 -
#11620
0"
#11630
1"
b1011101 -
#11640
0"
#11650
1"
b1011110 -
#11660
0"
#11670
1"
b1011111 -
#11680
0"
#11690
1"
b1100000 -
#11700
0"
#11710
1"
b1100001 -
0)
#11720
0"
#11730
1"
b1100010 -
#11740
0"
#11750
1"
b1100011 -
#11760
0"
#11770
1"
b1100100 -
#11780
0"
#11790
1"
b1100101 -
#11800
0"
#11810
1"
b1100110 -
#11820
0"
#11830
1"
b1100111 -
#11840
0"
#11850
1"
b1101000 -
#11860
0"
#11870
1"
b1101001 -
#11880
0"
#11890
1"
b1101010 -
#11900
0"
#11910
1"
b1101011 -
#11920
0"
#11930
1"
b1101100 -
#11940
0"
#11950
1"
b1101101 -
#11960
0"
#11970
1"
b1101110 -
#11980
0"
#11990
1"
b1101111 -
#12000
0"
#12010
1"
b1110000 -
#12020
0"
#12030
1"
b1110001 -
#12040
0"
#12050
1"
b1110010 -
#12060
0"
#12070
1"
b1110011 -
#12080
0"
#12090
1"
b1110100 -
#12100
0"
#12110
1"
b1110101 -
#12120
0"
#12130
1"
b1110110 -
#12140
0"
#12150
1"
b1110111 -
#12160
0"
#12170
1"
b1111000 -
#12180
0"
#12190
1"
b1111001 -
#12200
0"
#12210
1"
b1111010 -
#12220
0"
#12230
1"
b1111011 -
#12240
0"
#12250
1"
b1111100 -
#12260
0"
#12270
1"
b1111101 -
#12280
0"
#12290
1"
b1111110 -
#12300
0"
#12310
1"
b1111111 -
#12320
0"
#12330
1"
b0 -
b100 /
#12340
0"
#12350
1"
b01 -
0+
0(
0*
#12360
0"
#12370
1"
b010 -
#12380
0"
#12390
1"
b011 -
#12400
0"
#12410
1"
b0100 -
#12420
0"
#12430
1"
b0101 -
#12440
0"
#12450
1"
b0110 -
#12460
0"
#12470
1"
b0111 -
#12480
0"
#12490
1"
b01000 -
#12500
0"
#12510
1"
b01001 -
#12520
0"
#12530
1"
b01010 -
#12540
0"
#12550
1"
b01011 -
#12560
0"
#12570
1"
b01100 -
#12580
0"
#12590
1"
b01101 -
#12600
0"
#12610
1"
b01110 -
#12620
0"
#12630
1"
b01111 -
#12640
0"
#12650
1"
b010000 -
#12660
0"
#12670
1"
b010001 -
#12680
0"
#12690
1"
b010010 -
#12700
0"
#12710
1"
b010011 -
#12720
0"
#12730
1"
b010100 -
#12740
0"
#12750
1"
b010101 -
#12760
0"
#12770
1"
b010110 -
#12780
0"
#12790
1"
b010111 -
#12800
0"
#12810
1"
b011000 -
#12820
0"
#12830
1"
b011001 -
#12840
0"
#12850
1"
b011010 -
#12860
0"
#12870
1"
b011011 -
#12880
0"
#12890
1"
b011100 -
#12900
0"
#12910
1"
b011101 -
#12920
0"
#12930
1"
b011110 -
#12940
0"
#12950
1"
b011111 -
#12960
0"
#12970
1"
b0100000 -
#12980
0"
#12990
1"
b0100001 -
1)
#13000
0"
#13010
1"
b0100010 -
#13020
0"
#13030
1"
b0100011 -
#13040
0"
#13050
1"
b0100100 -
#13060
0"
#13070
1"
b0100101 -
#13080
0"
#13090
1"
b0100110 -
#13100
0"
#13110
1"
b0100111 -
#13120
0"
#13130
1"
b0101000 -
#13140
0"
#13150
1"
b0101001 -
#13160
0"
#13170
1"
b0101010 -
#13180
0"
#13190
1"
b0101011 -
#13200
0"
#13210
1"
b0101100 -
#13220
0"
#13230
1"
b0101101 -
#13240
0"
#13250
1"
b0101110 -
#13260
0"
#13270
1"
b0101111 -
#13280
0"
#13290
1"
b0110000 -
#13300
0"
#13310
1"
b0110001 -
#13320
0"
