ex7_2/lfsr/simulation/lfsrTest_tb-waves.vcd
$date 
$end
$version DSim 2025
$end
$timescale 1 ns $end
$scope module $pkgs $end
$scope module std $end
$scope function randomize $end
$upscope $end
$upscope $end
$upscope $end
$scope module $unit $end
$upscope $end
$scope module lfsrTest_tb $end
$scope module testLFSR $end
$var wire 1 " clk $end
$var reg 1 # randomBit $end
$var reg 5 $ sr[4:0] $end
$upscope $end
$var reg 1 " clk $end
$var reg 2 & counter[1:0] $end
$var wire 1 # randomBit $end
$var reg 3 % tempBuffer[2:0] $end
$var reg 3 ' value[2:0] $end
$upscope $end
$enddefinitions $end
#0
$dumpvars
0"
0#
b01 $
0"
b0 &
0#
b0 %
bx '
$end
#1
1"
b01 &
b010 $
#2
0"
#3
1"
b10 &
b0101 $
#4
0"
#5
1"
b11 &
b01010 $
#6
0"
#7
1"
b0 &
b0 '
b10101 $
#8
0"
#9
1"
b01 &
b01011 $
1#
#10
0"
#11
1"
b10 &
b01 %
b10111 $
0#
#12
0"
#13
1"
b11 &
b010 %
b01110 $
1#
#14
0"
#15
1"
b0 &
b101 %
b010 '
b11101 $
0#
#16
0"
#17
1"
b01 &
b010 %
b11011 $
1#
#18
0"
#19
1"
b10 &
b101 %
b10110 $
#20
0"
#21
1"
b11 &
b011 %
b01100 $
#22
0"
#23
1"
b0 &
b111 %
b011 '
b11000 $
0#
#24
0"
#25
1"
b01 &
b110 %
b10001 $
1#
#26
0"
#27
1"
b10 &
b101 %
b011 $
#28
0"
#29
1"
b11 &
b011 %
b0111 $
0#
#30
0"
#31
1"
b0 &
b110 %
b01111 $
#32
0"
#33
1"
b01 &
b100 %
b11111 $
#34
0"
#35
1"
b10 &
b0 %
b11110 $
1#
#36
0"
#37
1"
b11 &
b01 %
b11100 $
#38
0"
#39
1"
b0 &
b011 %
b01 '
b11001 $
#40
0"
#41
1"
b01 &
b111 %
b10011 $
#42
0"
#43
1"
b10 &
b0110 $
#44
0"
#45
1"
b11 &
b01101 $
0#
#46
0"
#47
1"
b0 &
b110 %
b111 '
b11010 $
#48
0"
#49
1"
b01 &
b100 %
b10100 $
1#
#50
0"
#51
1"
b10 &
b01 %
b01001 $
#52
0"
#53
1"
b11 &
b011 %
b10010 $
0#
#54
0"
#55
1"
b0 &
b110 %
b011 '
b0100 $
1#
#56
0"
#57
1"
b01 &
b101 %
b01000 $
0#
#58
0"
#59
1"
b10 &
b010 %
b10000 $
#60
0"
#61
1"
b11 &
b100 %
b01 $
1#
#62
0"
#63
1"
b0 &
b01 %
b100 '
b010 $
0#
#64
0"
#65
1"
b01 &
b010 %
b0101 $
#66
0"
#67
1"
b10 &
b100 %
b01010 $
#68
0"
#69
1"
b11 &
b0 %
b10101 $
#70
0"
#71
1"
b0 &
b0 '
b01011 $
1#
#72
0"
#73
1"
b01 &
b01 %
b10111 $
0#
#74
0"
#75
1"
b10 &
b010 %
b01110 $
1#
#76
0"
#77
1"
b11 &
b101 %
b11101 $
0#
#78
0"
#79
1"
b0 &
b010 %
b101 '
b11011 $
1#
#80
0"
#81
1"
b01 &
b101 %
b10110 $
#82
0"
#83
1"
b10 &
b011 %
b01100 $
#84
0"
#85
1"
b11 &
b111 %
b11000 $
0#
#86
0"
#87
1"
b0 &
b110 %
b111 '
b10001 $
1#
#88
0"
#89
1"
b01 &
b101 %
b011 $
#90
0"
#91
1"
b10 &
b011 %
b0111 $
0#
#92
0"
#93
1"
b11 &
b110 %
b01111 $
#94
0"
#95
1"
b0 &
b100 %
b110 '
b11111 $
#96
0"
#97
1"
b01 &
b0 %
b11110 $
1#
#98
0"
#99
1"
b10 &
b01 %
b11100 $
#100
0"
#101
1"
b11 &
b011 %
b11001 $
#102
0"
#103
1"
b0 &
b111 %
b011 '
b10011 $
#104
0"
#105
1"
b01 &
b0110 $
#106
0"
#107
1"
b10 &
b01101 $
0#
#108
0"
#109
1"
b11 &
b110 %
b11010 $
#110
0"
#111
1"
b0 &
b100 %
b110 '
b10100 $
1#
#112
0"
#113
1"
b01 &
b01 %
b01001 $
#114
0"
#115
1"
b10 &
b011 %
b10010 $
0#
#116
0"
#117
1"
b11 &
b110 %
b0100 $
1#
#118
0"
#119
1"
b0 &
b101 %
b01000 $
0#
#120
0"
#121
1"
b01 &
b010 %
b10000 $
#122
0"
#123
1"
b10 &
b100 %
b01 $
1#
#124
0"
#125
1"
b11 &
b01 %
b010 $
0#
#126
0"
#127
1"
b0 &
b010 %
b01 '
b0101 $
#128
0"
#129
1"
b01 &
b100 %
b01010 $
#130
0"
#131
1"
b10 &
b0 %
b10101 $
#132
0"
#133
1"
b11 &
b01011 $
1#
#134
0"
#135
1"
b0 &
b01 %
b0 '
b10111 $
0#
#136
0"
#137
1"
b01 &
b010 %
b01110 $
1#
#138
0"
#139
1"
b10 &
b101 %
b11101 $
0#
#140
0"
#141
1"
b11 &
b010 %
b11011 $
1#
#142
0"
#143
1"
b0 &
b101 %
b010 '
b10110 $
#144
0"
#145
1"
b01 &
b011 %
b01100 $
#146
0"
#147
1"
b10 &
b111 %
b11000 $
0#
#148
0"
#149
1"
b11 &
b110 %
b10001 $
1#
#150
0"
#151
1"
b0 &
b101 %
b110 '
b011 $
#152
0"
#153
1"
b01 &
b011 %
b0111 $
0#
#154
0"
#155
1"
b10 &
b110 %
b01111 $
#156
0"
#157
1"
b11 &
b100 %
b11111 $
#158
0"
#159
1"
b0 &
b0 %
b100 '
b11110 $
1#
#160
0"
#161
1"
b01 &
b01 %
b11100 $
#162
0"
#163
1"
b10 &
b011 %
b11001 $
#164
0"
#165
1"
b11 &
b111 %
b10011 $
#166
0"
#167
1"
b0 &
b111 '
b0110 $
#168
0"
#169
1"
b01 &
b01101 $
0#
#170
0"
#171
1"
b10 &
b110 %
b11010 $
#172
0"
#173
1"
b11 &
b100 %
b10100 $
1#
#174
0"
#175
1"
b0 &
b01 %
b100 '
b01001 $
#176
0"
#177
1"
b01 &
b011 %
b10010 $
0#
#178
0"
#179
1"
b10 &
b110 %
b0100 $
1#
#180
0"
#181
1"
b11 &
b101 %
b01000 $
0#
#182
0"
#183
1"
b0 &
b010 %
b101 '
b10000 $
#184
0"
#185
1"
b01 &
b100 %
b01 $
1#
#186
0"
#187
1"
b10 &
b01 %
b010 $
0#
#188
0"
#189
1"
b11 &
b010 %
b0101 $
#190
0"
#191
1"
b0 &
b100 %
b010 '
b01010 $
#192
0"
#193
1"
b01 &
b0 %
b10101 $
#194
0"
#195
1"
b10 &
b01011 $
1#
#196
0"
#197
1"
b11 &
b01 %
b10111 $
0#
#198
0"
#199
1"
b0 &
b010 %
b01 '
b01110 $
1#
#200
0"
#201
1"
b01 &
b101 %
b11101 $
0#
#202
0"
#203
1"
b10 &
b010 %
b11011 $
1#
#204
0"
#205
1"
b11 &
b101 %
b10110 $
#206
0"
#207
1"
b0 &
b011 %
b101 '
b01100 $
#208
0"
#209
1"
b01 &
b111 %
b11000 $
0#
#210
0"
#211
1"
b10 &
b110 %
b10001 $
1#
#212
0"
#213
1"
b11 &
b101 %
b011 $
#214
0"
#215
1"
b0 &
b011 %
b0111 $
0#
#216
0"
#217
1"
b01 &
b110 %
b01111 $
#218
0"
#219
1"
b10 &
b100 %
b11111 $
#220
0"
#221
1"
b11 &
b0 %
b11110 $
1#
#222
0"
#223
1"
b0 &
b01 %
b0 '
b11100 $
#224
0"
#225
1"
b01 &
b011 %
b11001 $
#226
0"
#227
1"
b10 &
b111 %
b10011 $
#228
0"
#229
1"
b11 &
b0110 $
#230
0"
#231
1"
b0 &
b111 '
b01101 $
0#
#232
0"
#233
1"
b01 &
b110 %
b11010 $
#234
0"
#235
1"
b10 &
b100 %
b10100 $
1#
#236
0"
#237
1"
b11 &
b01 %
b01001 $
#238
0"
#239
1"
b0 &
b011 %
b01 '
b10010 $
0#
#240
0"
#241
1"
b01 &
b110 %
b0100 $
1#
#242
0"
#243
1"
b10 &
b101 %
b01000 $
0#
#244
0"
#245
1"
b11 &
b010 %
b10000 $
#246
0"
#247
1"
b0 &
b100 %
b010 '
b01 $
1#
#248
0"
#249
1"
b01 &
b01 %
b010 $
0#
#250
0"
#251
1"
b10 &
b010 %
b0101 $
#252
0"
#253
1"
b11 &
b100 %
b01010 $
#254
0"
#255
1"
b0 &
b0 %
b100 '
b10101 $
#256
0"
#257
1"
b01 &
b01011 $
1#
#258
0"
#259
1"
b10 &
b01 %
b10111 $
0#
#260
0"
#261
1"
b11 &
b010 %
b01110 $
1#
#262
0"
#263
1"
b0 &
b101 %
b010 '
b11101 $
0#
#264
0"
#265
1"
b01 &
b010 %
b11011 $
1#
#266
0"
#267
1"
b10 &
b101 %
b10110 $
#268
0"
#269
1"
b11 &
b011 %
b01100 $
#270
0"
#271
1"
b0 &
b111 %
b011 '
b11000 $
0#
#272
0"
#273
1"
b01 &
b110 %
b10001 $
1#
#274
0"
#275
1"
b10 &
b101 %
b011 $
#276
0"
#277
1"
b11 &
b011 %
b0111 $
0#
#278
0"
#279
1"
b0 &
b110 %
b01111 $
#280
0"
#281
1"
b01 &
b100 %
b11111 $
#282
0"
#283
1"
b10 &
b0 %
b11110 $
1#
#284
0"
#285
1"
b11 &
b01 %
b11100 $
#286
0"
#287
1"
b0 &
b011 %
b01 '
b11001 $
#288
0"
#289
1"
b01 &
b111 %
b10011 $
#290
0"
#291
1"
b10 &
b0110 $
#292
0"
#293
1"
b11 &
b01101 $
0#
#294
0"
#295
1"
b0 &
b110 %
b111 '
b11010 $
#296
0"
#297
1"
b01 &
b100 %
b10100 $
1#
#298
0"
#299
1"
b10 &
b01 %
b01001 $
#300
0"
#301
1"
b11 &
b011 %
b10010 $
0#
#302
0"
#303
1"
b0 &
b110 %
b011 '
b0100 $
1#
#304
0"
#305
1"
b01 &
b101 %
b01000 $
0#
#306
0"
#307
1"
b10 &
b010 %
b10000 $
#308
0"
#309
1"
b11 &
b100 %
b01 $
1#
#310
0"
#311
1"
b0 &
b01 %
b100 '
b010 $
0#
#312
0"
#313
1"
b01 &
b010 %
b0101 $
#314
0"
#315
1"
b10 &
b100 %
b01010 $
#316
0"
#317
1"
b11 &
b0 %
b10101 $
#318
0"
#319
1"
b0 &
b0 '
b01011 $
1#
#320
0"
#321
1"
b01 &
b01 %
b10111 $
0#
#322
0"
#323
1"
b10 &
b010 %
b01110 $
1#
#324
0"
#325
1"
b11 &
b101 %
b11101 $
0#
#326
0"
#327
1"
b0 &
b010 %
b101 '
b11011 $
1#
#328
0"
#329
1"
b01 &
b101 %
b10110 $
#330
0"
#331
1"
b10 &
b011 %
b01100 $
#332
0"
#333
1"
b11 &
b111 %
b11000 $
0#
#334
0"
#335
1"
b0 &
b110 %
b111 '
b10001 $
1#
#336
0"
#337
1"
b01 &
b101 %
b011 $
#338
0"
#339
1"
b10 &
b011 %
b0111 $
0#
#340
0"
#341
1"
b11 &
b110 %
b01111 $
#342
0"
#343
1"
b0 &
b100 %
b110 '
b11111 $
#344
0"
#345
1"
b01 &
b0 %
b11110 $
1#
#346
0"
#347
1"
b10 &
b01 %
b11100 $
#348
0"
#349
1"
b11 &
b011 %
b11001 $
#350
0"
#351
1"
b0 &
b111 %
b011 '
b10011 $
#352
0"
#353
1"
b01 &
b0110 $
#354
0"
#355
1"
b10 &
b01101 $
0#
#356
0"
#357
1"
b11 &
b110 %
b11010 $
#358
0"
#359
1"
b0 &
b100 %
b110 '
b10100 $
1#
#360
0"
#361
1"
b01 &
b01 %
b01001 $
#362
0"
#363
1"
b10 &
b011 %
b10010 $
0#
#364
0"
#365
1"
b11 &
b110 %
b0100 $
1#
#366
0"
#367
1"
b0 &
b101 %
b01000 $
0#
#368
0"
#369
1"
b01 &
b010 %
b10000 $
#370
0"
#371
1"
b10 &
b100 %
b01 $
1#
#372
0"
#373
1"
b11 &
b01 %
b010 $
0#
#374
0"
#375
1"
b0 &
b010 %
b01 '
b0101 $
#376
0"
#377
1"
b01 &
b100 %
b01010 $
#378
0"
#379
1"
b10 &
b0 %
b10101 $
#380
0"
#381
1"
b11 &
b01011 $
1#
#382
0"
#383
1"
b0 &
b01 %
b0 '
b10111 $
0#
#384
0"
#385
1"
b01 &
b010 %
b01110 $
1#
#386
0"
#387
1"
b10 &
b101 %
b11101 $
0#
#388
0"
#389
1"
b11 &
b010 %
b11011 $
1#
#390
0"
#391
1"
b0 &
b101 %
b010 '
b10110 $
#392
0"
#393
1"
b01 &
b011 %
b01100 $
#394
0"
#395
1"
b10 &
b111 %
b11000 $
0#
#396
0"
#397
1"
b11 &
b110 %
b10001 $
1#
#398
0"
#399
1"
b0 &
b101 %
b110 '
b011 $
#400
0"
#401
1"
b01 &
b011 %
b0111 $
0#
#402
0"
#403
1"
b10 &
b110 %
b01111 $
#404
0"
#405
1"
b11 &
b100 %
b11111 $
#406
0"
#407
1"
b0 &
b0 %
b100 '
b11110 $
1#
#408
0"
#409
1"
b01 &
b01 %
b11100 $
#410
0"
#411
1"
b10 &
b011 %
b11001 $
#412
0"
#413
1"
b11 &
b111 %
b10011 $
#414
0"
#415
1"
b0 &
b111 '
b0110 $
#416
0"
#417
1"
b01 &
b01101 $
0#
#418
0"
#419
1"
b10 &
b110 %
b11010 $
#420
0"
#421
1"
b11 &
b100 %
b10100 $
1#
#422
0"
#423
1"
b0 &
b01 %
b100 '
b01001 $
#424
0"
#425
1"
b01 &
b011 %
b10010 $
0#
#426
0"
#427
1"
b10 &
b110 %
b0100 $
1#
#428
0"
#429
1"
b11 &
b101 %
b01000 $
0#
#430
0"
#431
1"
b0 &
b010 %
b101 '
b10000 $
#432
0"
#433
1"
b01 &
b100 %
b01 $
1#
#434
0"
#435
1"
b10 &
b01 %
b010 $
0#
#436
0"
#437
1"
b11 &
b010 %
b0101 $
#438
0"
#439
1"
b0 &
b100 %
b010 '
b01010 $
#440
0"
#441
1"
b01 &
b0 %
b10101 $
#442
0"
#443
1"
b10 &
b01011 $
1#
#444
0"
#445
1"
b11 &
b01 %
b10111 $
0#
#446
0"
#447
1"
b0 &
b010 %
b01 '
b01110 $
1#
#448
0"
#449
1"
b01 &
b101 %
b11101 $
0#
#450
0"
#451
1"
b10 &
b010 %
b11011 $
1#
#452
0"
#453
1"
b11 &
b101 %
b10110 $
#454
0"
#455
1"
b0 &
b011 %
b101 '
b01100 $
#456
0"
#457
1"
b01 &
b111 %
b11000 $
0#
#458
0"
#459
1"
b10 &
b110 %
b10001 $
1#
#460
0"
#461
1"
b11 &
b101 %
b011 $
#462
0"
#463
1"
b0 &
b011 %
b0111 $
0#
#464
0"
#465
1"
b01 &
b110 %
b01111 $
#466
0"
#467
1"
b10 &
b100 %
b11111 $
#468
0"
#469
1"
b11 &
b0 %
b11110 $
1#
#470
0"
#471
1"
b0 &
b01 %
b0 '
b11100 $
#472
0"
#473
1"
b01 &
b011 %
b11001 $
#474
0"
#475
1"
b10 &
b111 %
b10011 $
#476
0"
#477
1"
b11 &
b0110 $
#478
0"
#479
1"
b0 &
b111 '
b01101 $
0#
#480
0"
#481
1"
b01 &
b110 %
b11010 $
#482
0"
#483
1"
b10 &
b100 %
b10100 $
1#
#484
0"
#485
1"
b11 &
b01 %
b01001 $
#486
0"
#487
1"
b0 &
b011 %
b01 '
b10010 $
0#
#488
0"
#489
1"
b01 &
b110 %
b0100 $
1#
#490
0"
#491
1"
b10 &
b101 %
b01000 $
0#
#492
0"
#493
1"
b11 &
b010 %
b10000 $
#494
0"
#495
1"
b0 &
b100 %
b010 '
b01 $
1#
#496
0"
#497
1"
b01 &
b01 %
b010 $
0#
#498
0"
#499
1"
b10 &
b010 %
b0101 $
#500
0"
#501
1"
b11 &
b100 %
b01010 $
#502
0"
#503
1"
b0 &
b0 %
b100 '
b10101 $
#504
0"
#505
1"
b01 &
b01011 $
1#
#506
0"
#507
1"
b10 &
b01 %
b10111 $
0#
#508
0"
#509
1"
b11 &
b010 %
b01110 $
1#
#510
0"
#511
1"
b0 &
b101 %
b010 '
b11101 $
0#
#512
0"
#513
1"
b01 &
b010 %
b11011 $
1#
#514
0"
#515
1"
b10 &
b101 %
b10110 $
#516
0"
#517
1"
b11 &
b011 %
b01100 $
#518
0"
#519
1"
b0 &
b111 %
b011 '
b11000 $
0#
#520
0"
#521
1"
b01 &
b110 %
b10001 $
1#
#522
0"
#523
1"
b10 &
b101 %
b011 $
#524
0"
#525
1"
b11 &
b011 %
b0111 $
0#
#526
0"
#527
1"
b0 &
b110 %
b01111 $
#528
0"
#529
1"
b01 &
b100 %
b11111 $
#530
0"
#531
1"
b10 &
b0 %
b11110 $
1#
#532
0"
#533
1"
b11 &
b01 %
b11100 $
#534
0"
#535
1"
b0 &
b011 %
b01 '
b11001 $
#536
0"
#537
1"
b01 &
b111 %
b10011 $
#538
0"
#539
1"
b10 &
b0110 $
#540
0"
#541
1"
b11 &
b01101 $
0#
#542
0"
#543
1"
b0 &
b110 %
b111 '
b11010 $
#544
0"
#545
1"
b01 &
b100 %
b10100 $
1#
#546
0"
#547
1"
b10 &
b01 %
b01001 $
#548
0"
#549
1"
b11 &
b011 %
b10010 $
0#
#550
0"
#551
1"
b0 &
b110 %
b011 '
b0100 $
1#
#552
0"
#553
1"
b01 &
b101 %
b01000 $
0#
#554
0"
#555
1"
b10 &
b010 %
b10000 $
#556
0"
#557
1"
b11 &
b100 %
b01 $
1#
#558
0"
#559
1"
b0 &
b01 %
b100 '
b010 $
0#
#560
0"
#561
1"
b01 &
b010 %
b0101 $
#562
0"
#563
1"
b10 &
b100 %
b01010 $
#564
0"
#565
1"
b11 &
b0 %
b10101 $
#566
0"
#567
1"
b0 &
b0 '
b01011 $
1#
#568
0"
#569
1"
b01 &
b01 %
b10111 $
0#
#570
0"
#571
1"
b10 &
b010 %
b01110 $
1#
#572
0"
#573
1"
b11 &
b101 %
b11101 $
0#
#574
0"
#575
1"
b0 &
b010 %
b101 '
b11011 $
1#
#576
0"
#577
1"
b01 &
b101 %
b10110 $
#578
0"
#579
1"
b10 &
b011 %
b01100 $
#580
0"
#581
1"
b11 &
b111 %
b11000 $
0#
#582
0"
#583
1"
b0 &
b110 %
b111 '
b10001 $
1#
#584
0"
#585
1"
b01 &
b101 %
b011 $
#586
0"
#587
1"
b10 &
b011 %
b0111 $
0#
#588
0"
#589
1"
b11 &
b110 %
b01111 $
#590
0"
#591
1"
b0 &
b100 %
b110 '
b11111 $
#592
0"
#593
1"
b01 &
b0 %
b11110 $
1#
#594
0"
#595
1"
b10 &
b01 %
b11100 $
#596
0"
#597
1"
b11 &
b011 %
b11001 $
#598
0"
#599
1"
b0 &
b111 %
b011 '
b10011 $
#600
0"
#601
1"
b01 &
b0110 $
#602
0"
#603
1"
b10 &
b01101 $
0#
#604
0"
#605
1"
b11 &
b110 %
b11010 $
#606
0"
#607
1"
b0 &
b100 %
b110 '
b10100 $
1#
#608
0"
#609
1"
b01 &
b01 %
b01001 $
#610
0"
#611
1"
b10 &
b011 %
b10010 $
0#
#612
0"
#613
1"
b11 &
b110 %
b0100 $
1#
#614
0"
#615
1"
b0 &
b101 %
b01000 $
0#
#616
0"
#617
1"
b01 &
b010 %
b10000 $
#618
0"
#619
1"
b10 &
b100 %
b01 $
1#
#620
0"
#621
1"
b11 &
b01 %
b010 $
0#
#622
0"
#623
1"
b0 &
b010 %
b01 '
b0101 $
#624
0"
#625
1"
b01 &
b100 %
b01010 $
#626
0"
#627
1"
b10 &
b0 %
b10101 $
#628
0"
#629
1"
b11 &
b01011 $
1#
#630
0"
#631
1"
b0 &
b01 %
b0 '
b10111 $
0#
#632
0"
#633
1"
b01 &
b010 %
b01110 $
1#
#634
0"
#635
1"
b10 &
b101 %
b11101 $
0#
#636
0"
#637
1"
b11 &
b010 %
b11011 $
1#
#638
0"
#639
1"
b0 &
b101 %
b010 '
b10110 $
#640
0"
#641
1"
b01 &
b011 %
b01100 $
#642
0"
#643
1"
b10 &
b111 %
b11000 $
0#
#644
0"
#645
1"
b11 &
b110 %
b10001 $
1#
#646
0"
#647
1"
b0 &
b101 %
b110 '
b011 $
#648
0"
#649
1"
b01 &
b011 %
b0111 $
0#
#650
0"
#651
1"
b10 &
b110 %
b01111 $
#652
0"
#653
1"
b11 &
b100 %
b11111 $
#654
0"
#655
1"
b0 &
b0 %
b100 '
b11110 $
1#
#656
0"
#657
1"
b01 &
b01 %
b11100 $
#658
0"
#659
1"
b10 &
b011 %
b11001 $
#660
0"
#661
1"
b11 &
b111 %
b10011 $
#662
0"
#663
1"
b0 &
b111 '
b0110 $
#664
0"
#665
1"
b01 &
b01101 $
0#
#666
0"
#667
1"
b10 &
b110 %
b11010 $
#668
0"
#669
1"
b11 &
b100 %
b10100 $
1#
#670
0"
#671
1"
b0 &
b01 %
b100 '
b01001 $
#672
0"
#673
1"
b01 &
b011 %
b10010 $
0#
#674
0"
#675
1"
b10 &
b110 %
b0100 $
1#
#676
0"
#677
1"
b11 &
b101 %
b01000 $
0#
#678
0"
#679
1"
b0 &
b010 %
b101 '
b10000 $
#680
0"
#681
1"
b01 &
b100 %
b01 $
1#
#682
0"
#683
1"
b10 &
b01 %
b010 $
0#
#684
0"
#685
1"
b11 &
b010 %
b0101 $
#686
0"
#687
1"
b0 &
b100 %
b010 '
b01010 $
#688
0"
#689
1"
b01 &
b0 %
b10101 $
#690
0"
#691
1"
b10 &
b01011 $
1#
#692
0"
#693
1"
b11 &
b01 %
b10111 $
0#
#694
0"
#695
1"
b0 &
b010 %
b01 '
b01110 $
1#
#696
0"
#697
1"
b01 &
b101 %
b11101 $
0#
#698
0"
#699
1"
b10 &
b010 %
b11011 $
1#
#700
0"
#701
1"
b11 &
b101 %
b10110 $
#702
0"
#703
1"
b0 &
b011 %
b101 '
b01100 $
#704
0"
#705
1"
b01 &
b111 %
b11000 $
0#
#706
0"
#707
1"
b10 &
b110 %
b10001 $
1#
#708
0"
#709
1"
b11 &
b101 %
b011 $
#710
0"
#711
1"
b0 &
b011 %
b0111 $
0#
#712
0"
#713
1"
b01 &
b110 %
b01111 $
#714
0"
#715
1"
b10 &
b100 %
b11111 $
#716
0"
#717
1"
b11 &
b0 %
b11110 $
1#
#718
0"
#719
1"
b0 &
b01 %
b0 '
b11100 $
#720
0"
#721
1"
b01 &
b011 %
b11001 $
#722
0"
#723
1"
b10 &
b111 %
b10011 $
#724
0"
#725
1"
b11 &
b0110 $
#726
0"
#727
1"
b0 &
b111 '
b01101 $
0#
#728
0"
#729
1"
b01 &
b110 %
b11010 $
#730
0"
#731
1"
b10 &
b100 %
b10100 $
1#
#732
0"
#733
1"
b11 &
b01 %
b01001 $
#734
0"
#735
1"
b0 &
b011 %
b01 '
b10010 $
0#
#736
0"
#737
1"
b01 &
b110 %
b0100 $
1#
#738
0"
#739
1"
b10 &
b101 %
b01000 $
0#
#740
0"
#741
1"
b11 &
b010 %
b10000 $
#742
0"
#743
1"
b0 &
b100 %
b010 '
b01 $
1#
#744
0"
#745
1"
b01 &
b01 %
b010 $
0#
#746
0"
#747
1"
b10 &
b010 %
b0101 $
#748
0"
#749
1"
b11 &
b100 %
b01010 $
#750
0"
#751
1"
b0 &
b0 %
b100 '
b10101 $
#752
0"
#753
1"
b01 &
b01011 $
1#
#754
0"
#755
1"
b10 &
b01 %
b10111 $
0#
#756
0"
#757
1"
b11 &
b010 %
b01110 $
1#
#758
0"
#759
1"
b0 &
b101 %
b010 '
b11101 $
0#
#760
0"
#761
1"
b01 &
b010 %
b11011 $
1#
#762
0"
#763
1"
b10 &
b101 %
b10110 $
#764
0"
#765
1"
b11 &
b011 %
b01100 $
#766
0"
#767
1"
b0 &
b111 %
b011 '
b11000 $
0#
#768
0"
#769
1"
b01 &
b110 %
b10001 $
1#
#770
0"
#771
1"
b10 &
b101 %
b011 $
#772
0"
#773
1"
b11 &
b011 %
b0111 $
0#
#774
0"
#775
1"
b0 &
b110 %
b01111 $
#776
0"
#777
1"
b01 &
b100 %
b11111 $
#778
0"
#779
1"
b10 &
b0 %
b11110 $
1#
#780
0"
#781
1"
b11 &
b01 %
b11100 $
#782
0"
#783
1"
b0 &
b011 %
b01 '
b11001 $
#784
0"
#785
1"
b01 &
b111 %
b10011 $
#786
0"
#787
1"
b10 &
b0110 $
#788
0"
#789
1"
b11 &
b01101 $
0#
#790
0"
#791
1"
b0 &
b110 %
b111 '
b11010 $
#792
0"
#793
1"
b01 &
b100 %
b10100 $
1#
#794
0"
#795
1"
b10 &
b01 %
b01001 $
#796
0"
#797
1"
b11 &
b011 %
b10010 $
0#
#798
0"
#799
1"
b0 &
b110 %
b011 '
b0100 $
1#
#800
0"
#801
1"
b01 &
b101 %
b01000 $
0#
#802
0"
#803
1"
b10 &
b010 %
b10000 $
#804
0"
#805
1"
b11 &
b100 %
b01 $
1#
#806
0"
#807
1"
b0 &
b01 %
b100 '
b010 $
0#
#808
0"
#809
1"
b01 &
b010 %
b0101 $
#810
0"
#811
1"
b10 &
b100 %
b01010 $
#812
0"
#813
1"
b11 &
b0 %
b10101 $
#814
0"
#815
1"
b0 &
b0 '
b01011 $
1#
#816
0"
#817
1"
b01 &
b01 %
b10111 $
0#
#818
0"
#819
1"
b10 &
b010 %
b01110 $
1#
#820
0"
#821
1"
b11 &
b101 %
b11101 $
0#
#822
0"
#823
1"
b0 &
b010 %
b101 '
b11011 $
1#
#824
0"
#825
1"
b01 &
b101 %
b10110 $
#826
0"
#827
1"
b10 &
b011 %
b01100 $
#828
0"
#829
1"
b11 &
b111 %
b11000 $
0#
#830
0"
#831
1"
b0 &
b110 %
b111 '
b10001 $
1#
#832
0"
#833
1"
b01 &
b101 %
b011 $
#834
0"
#835
1"
b10 &
b011 %
b0111 $
0#
#836
0"
#837
1"
b11 &
b110 %
b01111 $
#838
0"
#839
1"
b0 &
b100 %
b110 '
b11111 $
#840
0"
#841
1"
b01 &
b0 %
b11110 $
1#
#842
0"
#843
1"
b10 &
b01 %
b11100 $
#844
0"
#845
1"
b11 &
b011 %
b11001 $
#846
0"
#847
1"
b0 &
b111 %
b011 '
b10011 $
#848
0"
#849
1"
b01 &
b0110 $
#850
0"
#851
1"
b10 &
b01101 $
0#
#852
0"
#853
1"
b11 &
b110 %
b11010 $
#854
0"
#855
1"
b0 &
b100 %
b110 '
b10100 $
1#
#856
0"
#857
1"
b01 &
b01 %
b01001 $
#858
0"
#859
1"
b10 &
b011 %
b10010 $
0#
#860
0"
#861
1"
b11 &
b110 %
b0100 $
1#
#862
0"
#863
1"
b0 &
b101 %
b01000 $
0#
#864
0"
#865
1"
b01 &
b010 %
b10000 $
#866
0"
#867
1"
b10 &
b100 %
b01 $
1#
#868
0"
#869
1"
b11 &
b01 %
b010 $
0#
#870
0"
#871
1"
b0 &
b010 %
b01 '
b0101 $
#872
0"
#873
1"
b01 &
b100 %
b01010 $
#874
0"
#875
1"
b10 &
b0 %
b10101 $
#876
0"
#877
1"
b11 &
b01011 $
1#
#878
0"
#879
1"
b0 &
b01 %
b0 '
b10111 $
0#
#880
0"
#881
1"
b01 &
b010 %
b01110 $
1#
#882
0"
#883
1"
b10 &
b101 %
b11101 $
0#
#884
0"
#885
1"
b11 &
b010 %
b11011 $
1#
#886
0"
#887
1"
b0 &
b101 %
b010 '
b10110 $
#888
0"
#889
1"
b01 &
b011 %
b01100 $
#890
0"
#891
1"
b10 &
b111 %
b11000 $
0#
#892
0"
#893
1"
b11 &
b110 %
b10001 $
1#
#894
0"
#895
1"
b0 &
b101 %
b110 '
b011 $
#896
0"
#897
1"
b01 &
b011 %
b0111 $
0#
#898
0"
#899
1"
b10 &
b110 %
b01111 $
#900
0"
#901
1"
b11 &
b100 %
b11111 $
#902
0"
#903
1"
b0 &
b0 %
b100 '
b11110 $
1#
#904
0"
#905
1"
b01 &
b01 %
b11100 $
#906
0"
#907
1"
b10 &
b011 %
b11001 $
#908
0"
#909
1"
b11 &
b111 %
b10011 $
#910
0"
#911
1"
b0 &
b111 '
b0110 $
#912
0"
#913
1"
b01 &
b01101 $
0#
#914
0"
#915
1"
b10 &
b110 %
b11010 $
#916
0"
#917
1"
b11 &
b100 %
b10100 $
1#
#918
0"
#919
1"
b0 &
b01 %
b100 '
b01001 $
#920
0"
#921
1"
b01 &
b011 %
b10010 $
0#
#922
0"
#923
1"
b10 &
b110 %
b0100 $
1#
#924
0"
#925
1"
b11 &
b101 %
b01000 $
0#
#926
0"
#927
1"
b0 &
b010 %
b101 '
b10000 $
#928
0"
#929
1"
b01 &
b100 %
b01 $
1#
#930
0"
#931
1"
b10 &
b01 %
b010 $
0#
#932
0"
#933
1"
b11 &
b010 %
b0101 $
#934
0"
#935
1"
b0 &
b100 %
b010 '
b01010 $
#936
0"
#937
1"
b01 &
b0 %
b10101 $
#938
0"
#939
1"
b10 &
b01011 $
1#
#940
0"
#941
1"
b11 &
b01 %
b10111 $
0#
#942
0"
#943
1"
b0 &
b010 %
b01 '
b01110 $
1#
#944
0"
#945
1"
b01 &
b101 %
b11101 $
0#
#946
0"
#947
1"
b10 &
b010 %
b11011 $
1#
#948
0"
#949
1"
b11 &
b101 %
b10110 $
#950
0"
#951
1"
b0 &
b011 %
b101 '
b01100 $
#952
0"
#953
1"
b01 &
b111 %
b11000 $
0#
#954
0"
#955
1"
b10 &
b110 %
b10001 $
1#
#956
0"
#957
1"
b11 &
b101 %
b011 $
#958
0"
#959
1"
b0 &
b011 %
b0111 $
0#
#960
0"
#961
1"
b01 &
b110 %
b01111 $
#962
0"
#963
1"
b10 &
b100 %
b11111 $
#964
0"
#965
1"
b11 &
b0 %
b11110 $
1#
#966
0"
#967
1"
b0 &
b01 %
b0 '
b11100 $
#968
0"
#969
1"
b01 &
b011 %
b11001 $
#970
0"
#971
1"
b10 &
b111 %
b10011 $
#972
0"
#973
1"
b11 &
b0110 $
#974
0"
