ex2/uart/simulation/waves.vcd
$date 
$end
$version DSim 20240923.5.0
$end
$timescale 1 ns $end
$scope module $pkgs $end
$scope module std $end
$scope function randomize $end
$upscope $end
$upscope $end
$upscope $end
$scope module $unit $end
$upscope $end
$scope module uart_tb $end
$scope module u $end
$var wire 1 & BTN_S1 $end
$var wire 1 " EXT_CLK $end
$var reg 6 % LED_O[5:0] $end
$var wire 1 ' UART_RX $end
$var reg 1 $ UART_TX $end
$var reg 1 , byteReady $end
$var reg 8 + dataIn[7:0] $end
$var reg 8 / dataOut[7:0] $end
$var reg 3 * rxBitNumber[2:0] $end
$var reg 13 ) rxCounter[12:0] $end
$var reg 4 ( rxState[3:0] $end
$var reg 3 0 txBitNumber[2:0] $end
$var reg 4 1 txByteCounter[3:0] $end
$var reg 25 . txCounter[24:0] $end
$var reg 4 - txState[3:0] $end
$upscope $end
$var reg 1 & btn $end
$var reg 1 " clk $end
$var wire 6 % led[5:0] $end
$var reg 1 # uart_rx $end
$var wire 1 $ uart_tx $end
$upscope $end
$enddefinitions $end
#0
$dumpvars
x&
x"
bx %
x'
x$
x,
bx +
bx /
bx *
bx )
bx (
bx 0
bx 1
bx .
bx -
x&
x"
bx %
x#
x$
$end
0"
1#
1&
1'
1$
b111111 %
b0 (
b0 )
b0 *
b0 +
0,
b0 -
b0 .
b0 /
b0 0
b0 1
#1
1"
#2
0"
#3
1"
#4
0"
#5
1"
#6
0"
#7
1"
#8
0"
#9
1"
#10
0#
0"
0'
#11
1"
b01 (
b01 )
#12
0"
#13
1"
b010 )
#14
0"
#15
1"
b011 )
#16
0"
#17
1"
b0100 )
#18
0"
#19
1"
b010 (
b01 )
#20
0"
#21
1"
b010 )
#22
0"
#23
1"
b011 )
#24
0"
#25
1"
b0100 )
#26
1#
0"
1'
#27
1"
b0101 )
#28
0"
#29
1"
b0110 )
#30
0"
#31
1"
b0111 )
#32
0"
#33
1"
b01000 )
b011 (
#34
0"
#35
1"
b01 )
b10000000 +
b01 *
b010 (
#36
0"
#37
1"
b010 )
#38
0"
#39
1"
b011 )
#40
0"
#41
1"
b0100 )
#42
0#
0"
0'
#43
1"
b0101 )
#44
0"
#45
1"
b0110 )
#46
0"
#47
1"
b0111 )
#48
0"
#49
1"
b01000 )
b011 (
#50
0"
#51
1"
b01 )
b01000000 +
b010 *
b010 (
#52
0"
#53
1"
b010 )
#54
0"
#55
1"
b011 )
#56
0"
#57
1"
b0100 )
#58
0"
#59
1"
b0101 )
#60
0"
#61
1"
b0110 )
#62
0"
#63
1"
b0111 )
#64
0"
#65
1"
b01000 )
b011 (
#66
0"
#67
1"
b01 )
b0100000 +
b011 *
b010 (
#68
0"
#69
1"
b010 )
#70
0"
#71
1"
b011 )
#72
0"
#73
1"
b0100 )
#74
0"
#75
1"
b0101 )
#76
0"
#77
1"
b0110 )
#78
0"
#79
1"
b0111 )
#80
0"
#81
1"
b01000 )
b011 (
#82
0"
#83
1"
b01 )
b010000 +
b100 *
b010 (
#84
0"
#85
1"
b010 )
#86
0"
#87
1"
b011 )
#88
0"
#89
1"
b0100 )
#90
0"
#91
1"
b0101 )
#92
0"
#93
1"
b0110 )
#94
0"
#95
1"
b0111 )
#96
0"
#97
1"
b01000 )
b011 (
#98
0"
#99
1"
b01 )
b01000 +
b101 *
b010 (
#100
0"
#101
1"
b010 )
#102
0"
#103
1"
b011 )
#104
0"
#105
1"
b0100 )
#106
1#
0"
1'
#107
1"
b0101 )
#108
0"
#109
1"
b0110 )
#110
0"
#111
1"
b0111 )
#112
0"
#113
1"
b01000 )
b011 (
#114
0"
#115
1"
b01 )
b10000100 +
b110 *
b010 (
#116
0"
#117
1"
b010 )
#118
0"
#119
1"
b011 )
#120
0"
#121
1"
b0100 )
#122
0"
#123
1"
b0101 )
#124
0"
#125
1"
b0110 )
#126
0"
#127
1"
b0111 )
#128
0"
#129
1"
b01000 )
b011 (
#130
0"
#131
1"
b01 )
b11000010 +
b111 *
b010 (
#132
0"
#133
1"
b010 )
#134
0"
#135
1"
b011 )
#136
0"
#137
1"
b0100 )
#138
0#
0"
0'
#139
1"
b0101 )
#140
0"
#141
1"
b0110 )
#142
0"
#143
1"
b0111 )
#144
0"
#145
1"
b01000 )
b011 (
#146
0"
#147
1"
b01 )
b01100001 +
b0 *
b0101 (
#148
0"
#149
1"
b010 )
#150
0"
#151
1"
b011 )
#152
0"
#153
1"
b0100 )
#154
1#
0"
1'
#155
1"
b0101 )
#156
0"
#157
1"
b0110 )
#158
0"
#159
1"
b0111 )
#160
0"
#161
1"
b01000 )
b0 (
b0 )
1,
#162
0"
#163
1"
b011110 %
